{
    "Race": {
        "Frieza race": 0,
        "Female majin": 0,
        "Female saiyan": 0,
        "Male saiyan": 1,
        "Female earthling": 4,
        "Male earthling": 4,
        "Namekian": 7,
        "Male majin": 8
    },
    "Height": {
        "Shortest": 0,
        "Short": 1,
        "Tall": 3,
        "Tallest": 4
    },
    "Modifiers": {
        "Male saiyan": {
            "BA": 8.000,
            "BKB": 7.000,
            "SS": 7.125,
            "KBS": 7.125
        },
        "Female saiyan": {
            "BA": 7.000,
            "BKB": 8,
            "SS": 7.500,
            "KBS": 8.000
        },
        "Male earthling": {
            "BA": 7.125,
            "BKB": 7.125,
            "SS": 7.875,
            "KBS": 7.000
        },
        "Female earthling": {
            "BA": 7.125,
            "BKB": 7.125,
            "SS": 7.000,
            "KBS": 7.875
        },
        "Male majin": {
            "BA": 7.125,
            "BKB": 7.125,
            "SS": 7.125,
            "KBS": 7.125
        },
        "Female majin": {
            "BA": 7.500,
            "BKB": 7.500,
            "SS": 8.000,
            "KBS": 7.000
        },
        "Frieza race": {
            "BA": 7.875,
            "BKB": 7.875,
            "SS": 7.125,
            "KBS": 7.500
        },
        "Namekian": {
            "BA": 7.500,
            "BKB": 7.500,
            "SS": 7.125,
            "KBS": 7.125
        }
    },
    "Weight": {
        "Thin": {
            "BA": -1,
            "BKB": 1,
            "SS": -1,
            "KBS": 1
        },
        "Medium": {
            "BA": 0,
            "BKB": 0,
            "SS": 0,
            "KBS": 0
        },
        "Thick": {
            "BA": 1,
            "BKB": -1,
            "SS": 1,
            "KBS": -1
        }
    },
    "Constant": {
        "Base": {
            "AP": 2.4,
            "Clothing": 10,
            "Bar": 500
        },
        "Health": 20250,
        "Race": 375,
        "Height": 375,
        "AP": 30,
        "Clothing": 75,
        "Weight": {
            "Base": 0.25,
            "AP": 0.01,
            "Arrow": 0.025
        },
        "QQ multiplier": 4,
        "Level mod": 60
    }
}